t0
10.96 3.61 -0.019495274511525773 -0.022802067268566976
8.96 5.0 -0.022526898885991537 0.01981259262641599
13.19 14.12 -0.004684463387838182 0.029632006391198073
2.2 0.35 -0.028715599836957876 -0.008684142214617678
1.57 9.38 -0.025409936990392918 0.015947887074602127
14.86 7.31 -7.084125528712344E-4 -0.02999163469461
12.26 12.58 -0.029578850419536767 -0.005009152409207537
2.01 1.25 0.029728566517860197 -0.004026454121576635
10.73 2.15 -0.029191122468619865 0.006919419702694471
1.07 5.23 -0.01587851330269275 0.025453345856610073
14.57 12.99 -0.022802247324108675 -0.019495063912954445
3.26 12.82 0.029944603245489244 0.0018222887998983616
11.57 10.69 0.007234927248623244 0.02911452949486096
14.18 0.21 -0.023612340193789536 0.018505604301744676
11.79 14.9 0.02226544752819089 -0.020105965442360086
14.43 10.86 -0.013222856290433063 -0.02692872205513204
6.62 6.93 0.018061929932348023 -0.02395342746078211
14.88 14.54 -0.01810383344182001 0.023921772817056
1.07 0.44 -0.02984222716839665 0.0030726987535078516
14.84 11.51 -0.02999884373006419 -2.633910765162564E-4
4.64 12.72 0.02840783088285049 0.009643399013385576
5.31 1.3 0.01768102862713911 -0.02423594905685121
4.62 7.97 0.02618079126007906 -0.014648077313974273
13.11 9.15 0.025191472444452988 -0.01629078623272572
9.7 7.45 -0.02997340847116786 -0.0012628478216010859
5.5 7.16 -0.008556051270021823 -0.028754025573209014
0.17 10.52 -8.758407139566827E-4 -0.0299872123253192
3.53 5.84 0.025477063617476398 -0.01584043021609768
0.06 3.97 0.023450220899555087 -0.018710615697033316
6.43 10.31 -0.025176848142815095 0.01631337848496222
10.08 11.11 0.02363925259975106 -0.01847121372636792
7.66 4.68 -0.02904671088720208 -0.007502572001340354
9.2 0.41 -0.011215714224476994 -0.027824589025444102
12.27 11.12 -0.020339083185407447 -0.022052702672848874
11.26 2.85 0.021543614794756704 0.020877563592889378
14.0 4.67 -0.029484993137053366 -0.00553490557353203
1.71 10.26 -0.021772044942974824 0.020639235911270655
14.11 8.01 0.006692353599067209 0.029244014828765423
3.76 11.03 0.02521337761109301 0.01625686284128748
2.83 4.47 0.001595969493169365 -0.02995751794419679
1.29 13.38 -0.029292281205077448 -0.00647782847894774
7.97 1.1 0.013321766878941472 0.026879927961643388
5.26 14.79 -0.02665339665236593 -0.013769402561173396
4.1 7.7 0.028209800930307585 -0.010208189431648359
13.65 0.29 -0.004545782134577137 0.029653597838794524
4.32 0.96 0.004457916374150181 0.029666934145628928
9.05 10.92 -0.009960413050511905 0.02829823619703518
0.54 7.16 0.025056589403803814 0.016497494580971567
6.51 12.29 -0.02376010440642039 -0.018315497224918636
6.75 5.17 -0.0036467881126893247 0.02977752401495376
3.09 2.24 0.026322927935211536 -0.014391089775192845
13.75 0.53 0.010134154481574188 0.028236481950547412
14.47 4.98 0.019383941845412304 0.022896785768611143
12.3 10.05 -0.02705488735231759 0.012962757050620268
12.44 8.09 -0.025879245277202048 -0.015174474089154307
5.62 0.02 -0.011129836956089977 -0.02785905112043218
1.04 7.55 -0.010803840247481844 -0.02798708694928594
10.82 5.12 0.02762492661390627 0.011698864456702323
7.81 14.34 -0.010512702861175508 -0.02809774152049649
7.58 13.52 0.014915512108246145 0.026029358396794235
10.43 0.49 -0.0018902680108814295 0.029940388889375474
6.1 2.78 -0.00809938203597243 0.028885982943901475
2.53 5.58 0.002889189091564227 0.0298605523457485
5.32 4.65 0.01566770202203463 -0.02558364933602577
1.64 14.03 0.02125414360320044 -0.021172184103075756
5.92 5.67 -0.029592701553231578 -0.004926663656204402
0.52 11.8 -0.004004444488868023 0.02973153921907802
6.29 4.36 9.494488346187819E-4 0.02998497201783655
2.23 5.06 0.015686175766769866 -0.025572326640609017
3.92 9.3 -0.029949041093502944 0.0017478379729459538
12.82 12.3 0.028548685861761285 0.009218054868922796
12.6 6.43 -0.0016613844469125607 -0.029953961369400824
4.39 14.75 0.01437835871745081 -0.026329884173545207
5.46 2.35 -0.004164640113197857 0.02970952326658143
0.02 4.03 0.0016437001589151034 0.029954936985204666
11.81 14.44 0.007497825655496733 0.029047936423088214
0.7 14.58 -0.025156375439183556 0.016344931164212418
0.16 2.18 0.017967768635555926 -0.024024139740251527
3.28 2.13 0.01123350030976229 -0.027817413085881485
8.07 7.76 -0.028756880860821583 -0.008546449739892771
2.18 3.27 -0.021352945029451585 0.02107253517185862
8.53 13.13 -0.017243941259209285 -0.024548859237221995
6.26 10.02 0.02985446318084168 0.0029514451009240274
11.15 13.92 -0.023062948185244406 0.019185943318083987
1.09 1.87 -0.02946707277619484 -0.005629531241803062
0.26 4.92 -0.026048329041377064 -0.014882357143683664
0.61 11.59 0.029474280483095694 0.005591671485683348
5.8 10.03 -0.022853643326286463 -0.01943478805428251
5.91 14.92 -0.007675311587233265 0.029001544649188648
6.56 8.88 0.02521501658803204 0.016254320609157092
7.46 7.97 -0.008878583367255104 -0.028656077145881306
14.06 5.6 0.028021137444182442 0.010715216112344004
6.19 9.76 -0.007162636920423887 -0.0291323983280845
14.24 9.29 -0.005339406143231388 -0.029521022035790406
2.3 1.39 0.02787618749534389 -0.011086846743976971
2.82 14.34 0.02908094058213438 0.007368778383040827
9.48 11.75 -0.019320329426541435 0.022950487377176042
8.77 12.5 -0.014237712344294683 -0.026406202816783762
6.04 8.64 0.005348344920259108 0.029519403900044094
4.39 12.46 0.025845245119340117 0.01523231120747032
8.19 7.88 -0.024966694863495842 -0.01663322420918717
9.06 1.28 0.01843370248731066 -0.023668515217675077
4.39 6.64 -0.0017905859479025582 -0.029946515689862382
7.35 10.92 -0.028003417245025076 0.010761441474125673
3.52 11.15 -0.011254152161690064 -0.02780906433380179
11.34 6.81 0.0295670950856041 -0.005078079183987385
3.31 12.52 -0.013538936133247977 -0.02677120110080667
0.26 9.08 0.015033340836218491 -0.025961484227641635
4.27 8.29 -0.021681274381423546 0.020734568748768976
14.65 5.95 0.02637033014401364 0.01430404446636424
3.01 5.9 0.02525093055733958 0.016198472335020184
10.84 2.42 0.029482267802018364 -0.005549404044586341
7.83 8.36 5.550965697259906E-4 0.029994864023667092
0.41 11.22 0.016178035147005276 0.025264029345737033
2.83 0.65 0.02929809098629709 -0.006451500953937534
12.89 6.66 -0.011528315507426088 0.027696533024211514
0.94 4.68 -0.029908020875191295 -0.002347400121223832
8.74 0.93 0.007706308656518373 0.02899332348818379
14.71 3.86 0.01786649279605736 -0.02409955259270243
8.7 0.84 -0.025286969435938205 -0.01614215526953966
2.67 7.59 -0.011604674954492175 -0.027664625773731008
3.73 12.13 -0.011782687456629436 0.02758927828522137
2.61 4.28 -0.01601236753404844 -0.025369353282150325
9.25 6.91 -0.026779015652584167 -0.013523472951821667
7.17 5.54 -0.022539661872484816 -0.019798071690799945
0.46 13.69 0.0014529470763580085 0.029964795090127058
10.45 12.91 0.02637362333298446 0.014297971614528327
9.82 13.24 -0.02388888300454683 -0.018147211047295216
13.67 12.04 -0.023279286484217843 0.01892286502582821
11.1 2.12 0.029518910903038584 0.005351065230257412
6.03 13.22 0.022540631948120657 0.01979696722680932
13.47 4.62 -0.0196278838610335 0.022688018316675006
1.21 10.91 -0.016230110368770454 -0.02523060675880645
12.61 12.6 0.026915446906408035 0.01324985727577207
3.42 8.35 -0.0034275518620532058 0.029803554959650966
4.84 1.23 -0.026513105300419493 0.014037636814252876
5.61 2.48 0.006099151301361226 -0.029373463421992027
3.6 7.78 0.0023758721586101925 0.029905772544542984
6.45 8.0 0.015571940509253524 -0.025642048841234763
1.93 9.02 0.029818621170959302 0.0032939082353364933
6.22 7.95 -0.024719770227215044 0.0169980281183934
7.77 11.68 -0.028495822378898392 0.009380197596547396
5.55 7.37 0.016949836083595873 -0.02475283936721667
13.13 9.16 -0.024612446479449362 -0.01715306031867902
4.86 9.78 0.021380307892254403 -0.021044772140187313
1.51 1.43 -0.010513367334023787 0.028097492900610928
5.7 10.69 0.0234320288911581 0.018733393233579764
12.18 8.84 -0.02240348833693951 -0.01995203524296746
4.58 0.27 0.026782136594886125 0.01351729112702916
13.1 14.14 0.011127343825434606 0.02786004700984121
2.83 1.85 0.02557923138178452 -0.015674913777023777
13.55 11.12 0.025728229564751494 0.015429134890312128
0.6 11.06 0.025534641329396257 0.015747447163876705
11.01 11.52 -0.0207524108214087 0.021664197310296982
6.19 4.59 0.01714255053930068 -0.024619767687927556
0.55 1.19 -0.021745981053079382 0.020666695624581895
6.03 10.96 -0.007547278572541677 0.02903512676308566
8.9 4.69 -0.018989759790989994 -0.023224750226439456
9.3 14.82 0.002166139075824235 0.029921695164281507
13.98 1.64 0.006367701421409612 -0.029316418243158185
14.83 9.61 -0.007205899026317001 0.02912172761397448
4.62 11.74 0.026318173880423304 -0.014399782067788542
6.82 7.54 -0.0029561710980825755 -0.029853995585831745
3.53 9.14 -0.012542415885162512 0.027252299054641667
14.51 14.44 -3.073988187957396E-6 0.02999999984250994
0.95 5.5 -0.02351779531040053 0.01862560881523347
4.91 10.74 -0.029989509680093184 -7.932900778385781E-4
4.57 0.15 -0.008273359155139432 0.02883663517628349
11.08 13.59 0.023089278929801227 0.019154247531600846
10.39 8.99 -0.019952621646450775 -0.022402966085623213
2.67 14.08 -0.026698731027715403 -0.013681292391792041
2.89 13.05 0.019681640517115403 0.022641400719810627
13.75 7.0 0.01634666665632137 0.0251552477472815
6.58 1.08 0.0017257253735000594 0.029950323402849224
11.99 4.47 0.008306075360552403 -0.02882722865807298
4.71 14.23 0.028768582937973082 -0.008506975710613266
1.87 3.5 -0.029998676054371527 -2.818421275753754E-4
9.87 14.96 -0.02956788855435967 0.005073457049878935
3.42 1.34 0.02631527424242116 -0.01440508040748698
4.62 5.69 -0.020877036365865537 0.021544125709304796
1.62 6.11 0.02521302449966343 -0.016257410481973187
14.47 1.7 -0.023482203731844262 0.018670460837808996
10.57 9.01 -0.01644834077075216 0.02508888371150084
8.85 6.54 0.02331298052531657 0.018881338380162843
9.95 8.3 -0.029336718957226813 -0.00627350945043433
4.77 6.61 0.02991476878491136 0.0022597806409678256
10.47 13.61 0.02731643238223186 -0.012402117638006603
1.48 6.04 0.010660455933450063 -0.02804201631999684
13.26 8.47 0.029880057873210623 0.0026799517707570284
8.24 5.77 0.027741603736933164 -0.011419431776711824
7.42 2.06 -0.029749786215448226 -0.003866551452538382
10.95 0.54 -0.019955449000364694 -0.02240044765610374
3.29 5.4 -0.028832498499388855 0.008287763889176587
12.44 10.29 0.029492337645711054 0.005495636468269569
12.89 10.76 -0.029984285213345407 -9.708966189847108E-4
14.46 1.93 0.023059894144428085 0.019189613910857384
12.87 11.87 0.006838133961305308 -0.02921027086364046
8.73 10.79 -0.02837531895537092 -0.009738648478149703
3.83 1.2 0.025689950773457416 0.01549278636196003
2.77 10.0 -0.0063671574097978285 -0.02931653640044909
13.77 4.33 0.02999999347160321 1.9791507390684014E-5
5.02 9.62 -0.01645470107509648 0.025084712725666578
2.08 5.34 -0.02018243775694281 -0.022196152959175812
2.84 1.35 -0.002524099084807485 -0.029893626809239356
14.39 10.7 0.0034569779831227425 -0.029800156093957034
0.15 13.19 -0.029341377449664384 0.006251685321281477
12.15 7.92 -0.013811020126003505 -0.026631855419386875
5.86 2.18 0.020421766095192403 -0.021976156842206284
4.68 14.17 0.027872300995118966 -0.01109661377346667
2.43 7.19 0.02371872362142048 -0.01836905413380531
5.15 8.48 0.029628891123208653 0.004704126997546656
3.12 12.57 0.02632692590108188 0.014383774629732768
10.78 10.27 -0.02562612522834598 0.015598131483646674
9.8 11.83 -0.014025865882004985 -0.026519334197147717
1.07 0.38 -0.029178780955561104 -0.006971279792648164
2.33 14.78 0.006559804625040267 0.02927403223475202
11.94 14.75 0.023292152794027007 -0.018907025631222377
4.04 14.95 0.024844026354114333 0.016815895888000507
2.14 9.48 0.029735437011590798 -0.003975397556184295
1.66 12.94 0.020455514414615614 -0.021944747208237622
12.16 14.89 0.02985959800277046 0.0028990355487551788
11.71 0.27 -0.022983580456742942 0.019280949908871813
9.67 4.88 -0.028840212825385764 -0.008260879141256965
4.34 6.73 0.029988543654005672 8.290051337573686E-4
4.09 6.57 -0.020998289852953413 0.021425961431201956
14.11 3.36 -0.024112543220673348 0.0178489568163285
11.87 4.21 -0.029977146150444924 0.0011707726828317096
6.0 11.54 0.01312819556144984 -0.026974997336428577
12.65 4.7 0.023466481502732124 -0.018690217919594493
13.93 7.84 0.004017273262176116 -0.0297298085351555
10.2 6.13 -0.026218284363248672 0.014580862973357585
7.4 12.59 -0.023505999922443403 0.01864049268785808
0.98 4.5 0.023144529147604325 0.01908745060335963
10.99 4.29 0.01742507431953447 0.024420622124726885
1.67 12.23 -0.018891308732037322 -0.023304901939095353
0.06 10.48 -0.02910125830767976 -0.007288124924128262
5.98 6.15 0.012065332497134741 -0.027466848230796054
14.61 9.38 0.021228943824835454 -0.02119745135816994
14.64 11.24 0.0027084605136845352 0.029877487204345205
7.29 0.77 -0.02932485310769898 0.006328743177904868
1.28 5.21 -0.02563785097722188 -0.015578850961151247
10.09 7.7 -0.014170787480117849 -0.026442178090946577
10.71 7.64 0.012093955446326313 0.02745425725934457
7.99 14.98 -0.01660886337916234 -0.024982907301839795
4.81 1.42 -0.011391817228389223 -0.027752954801876045
6.82 3.8 0.020056442833195794 -0.022310067254016717
4.96 12.49 0.016039705858514774 0.025352077547458052
5.92 5.55 -0.029929414219840807 -0.0020567363606429504
3.7 3.35 0.018956941389597613 -0.023251545607794785
10.52 12.0 -0.025406757055619417 -0.015952952576771887
7.26 3.75 -0.0279480565546529 0.010904408962338267
11.8 2.29 8.751821185355718E-4 0.029987231553769606
3.88 6.39 -0.029700370400195963 0.004229420538461907
2.09 6.33 -0.02987112685912533 0.0027777293183535888
2.14 13.79 -0.028271201651008566 0.01003688981746888
5.77 7.76 -0.02890408548429083 -0.008034540579075334
1.95 11.51 -0.023931456329077623 -0.018091030870833493
5.59 3.26 -0.027263663780005797 0.012517692969984518
4.52 6.4 -0.025157342873974614 0.016343442095264955
7.75 14.18 -0.029034655163837006 0.007549092628725191
6.8 2.5 -0.02397594492967777 0.018032028857814606
12.79 14.59 0.001114419684895165 -0.02997929400045835
4.04 0.96 -0.013805766633637853 -0.02663457917177464
8.15 14.23 0.026232986605477633 0.014554394997966458
13.46 8.89 -0.02679709128172874 0.013487620206644957
11.96 13.08 -0.029095458459823264 0.007311244559765375
0.33 1.13 0.02091595162500567 0.021506347147305666
6.47 13.36 -0.027640135762410863 0.011662885364929897
11.71 7.33 -0.015485750891685133 0.025694192326684896
8.14 8.32 0.028546897197345114 -0.009223592597475759
1.84 5.72 2.0212418111251494E-4 0.029999319089196168
0.25 6.06 0.014843690442794918 0.02607038269835099
6.9 13.73 -0.026128293208650063 0.01474151600083285
12.63 0.25 0.0021203364459763305 -0.02992497574528448
10.57 4.04 -0.009431705706823812 0.02847881541531998
6.88 13.55 -0.02829138178918406 0.009979865553133696
0.59 13.82 -0.029090901837843883 -0.007329354013890397
9.06 12.97 0.009076816243730476 -0.02859390506519791
0.39 8.43 0.019054957852974497 0.02317128786281344
5.84 10.54 -0.01771847487527901 -0.02420858624732362
13.35 9.49 0.029141764463490802 -0.007124434290133115
8.58 6.17 -0.02668673171785817 -0.013704683514005818
1.3 11.38 0.01550284895531315 0.025683879657651915
3.75 3.31 -0.007466159695221966 0.029056091605813798
7.38 8.46 -0.02914453833801877 -0.007113078451961156
6.71 1.92 0.028721357779655426 -0.008665079762646544
12.23 9.62 0.021453314210754058 -0.020970343568350473
4.82 11.9 -0.009854212271202523 -0.02833539307145891
1.31 9.84 0.00636316544614596 -0.029317403116663896
14.26 13.98 0.0233303210817849 -0.01885990769385744
4.74 12.98 -0.024444558580241055 -0.017391479402775467
14.16 8.64 0.02862283511243802 -0.00898517168039571
9.82 8.0 -0.014820208216383059 0.02608373877386162
4.88 12.55 -0.009659102027682888 -0.02840249545407608
10.38 0.19 0.00711225339402734 -0.029144739691051393
6.47 0.75 -0.02629405798112178 -0.014443770798700937
10.43 7.27 -0.0026172409479104917 0.02988561610240921
11.77 6.5 -0.0057775024055763 0.029438418197205503
13.85 9.34 -0.02998007533112966 -0.001093198582047582
2.58 9.33 -0.02998263896280544 0.0010204708844750718
5.07 10.04 0.012670971448819795 -0.027192765261061506
5.96 11.01 0.025450838686163883 -0.015882531604592007
4.86 10.44 -0.029999807421701538 1.0749260821669566E-4
6.43 12.33 -0.010384168852535786 -0.028145497637135957
3.94 0.59 0.029914271940082605 -0.0022663482289327326
13.78 12.83 0.029823146076656717 -0.0032526847511547847
0.8 2.52 -0.02641419401872962 0.014222881365634328
4.78 9.04 0.006899468234752149 0.029195844534413557
14.03 7.37 -0.02966609938412888 0.004463468083339246
0.84 0.75 -0.0054328785181876685 0.029503962971211425
3.03 12.84 -0.013773222245607052 -0.02665142301966473
7.48 3.45 0.014686533560967434 -0.02615923798512826
9.94 11.06 -0.028183094038674285 -0.010281692973788026
10.27 8.83 0.0011742545581902432 0.02997700996151166
14.11 5.73 -0.022419828371472765 0.019933672411116442
0.44 4.16 0.029444937072690892 0.005744186694848393
14.46 5.99 -0.007269341588265326 0.02910595596906441
7.44 14.8 9.685254551032537E-4 -0.029984361898209824
3.56 8.47 0.029973888702522218 0.0012513976381674004
14.07 3.21 -0.00758978830298153 -0.02902404371406446
11.33 12.39 -0.01981530368893002 -0.02252451419488279
8.94 1.22 0.024662246933859246 -0.017081380979691026
9.57 11.76 0.028198594356071013 0.010239105251034386
14.55 1.39 0.017633492199093184 0.024270557324967218
12.82 1.97 0.027459798876966417 -0.012081367705543678
8.04 6.8 -0.004519412700166337 0.02965762817296041
9.26 12.32 -0.029324371859822167 0.006330972676206217
0.5 12.49 -0.0016685882055060578 -0.02995356094691324
4.54 14.38 -0.0035584886322633327 0.029788205025715338
4.41 10.49 0.0034101070292093145 0.0298055560265085
14.9 10.05 0.025792807364409795 0.015320936272383873
12.51 9.08 0.028652272247666047 -0.00889085457341565
14.91 6.96 0.007668264649105517 0.029003408718136538
10.34 0.76 -0.007005871280180933 -0.02917049481249051
13.62 12.28 0.007340481347612688 -0.029088096080447583
3.02 12.15 0.027707936679198106 0.01150088018290549
2.02 0.36 -0.027096570410735953 0.012875397934667058
11.17 12.59 0.029861020621683273 0.002884345234434743
13.16 7.61 -0.003285461073745403 -0.029819553073996658
9.08 2.33 0.018258799585480014 0.023803702184687046
0.15 2.51 -0.007021149124531525 -0.029166821303856377
7.3 4.65 0.024119870288961613 0.017839054269878397
6.07 6.86 0.004934721449183593 0.029591358945120574
5.52 4.99 0.010275463494685203 -0.02818536588319179
8.48 3.4 0.013574991454974995 -0.026752936418220633
10.3 4.28 0.02366179729598329 -0.018442324927291507
9.93 8.6 -0.003414612051659556 -0.02980504025390104
0.93 11.85 0.014890274448305792 0.02604380400122324
4.73 3.19 0.004853884151057015 -0.029604726120133547
0.69 2.6 0.02555205605355736 0.01571917400615766
11.05 1.73 -0.02974618620641826 -0.003894150250451583
9.07 1.5 -0.021500323815889306 -0.020922143193561768
0.82 6.23 0.028775648895608966 -0.008483043712998203
4.84 12.35 0.028607173189949976 -0.009034912400250878
14.19 12.73 -0.025556206544950253 0.015712425243476637
8.08 6.5 0.014335903844166284 -0.026353023753846887
13.47 3.32 -0.018630375380005056 -0.023514019503268715
13.41 10.99 -0.018097551014068826 -0.02392652601806573
10.77 9.93 0.012942230923636113 0.027064712426317725
0.15 9.29 -0.02914542307118394 0.007109452440357048
1.9 9.92 -0.02579945798046465 0.01530973441684208
4.06 1.47 -0.02882560266940873 -0.008311716474072984
8.03 2.39 0.0275105394588699 0.011965375827025327
14.0 4.69 0.005520833325767816 0.02948763129498691
5.37 2.59 0.02455289122184758 -0.017238199808800227
0.59 3.22 0.028861148421477554 0.008187436216145056
6.77 10.9 0.02771565866260531 -0.011482258701925813
12.7 11.32 -0.025313529790287174 -0.016100472339538482
7.96 1.35 -0.02880857156044982 0.00837055581466618
11.38 10.88 -0.02412850983145262 0.017827366976463296
10.01 8.51 -0.027676096855141327 -0.011577290825786334
14.5 9.45 0.018443521158194514 -0.023660864888824993
3.02 5.34 0.015200685680916636 0.0258638580809201
4.35 3.21 0.02875532510670436 0.00855168275883395
10.2 3.22 -0.02979665742526808 -0.0034870053457396037
13.84 7.89 0.02036281013984044 -0.022030795791546234
9.94 14.34 0.006080571264643011 -0.029377315280596995
1.05 9.76 0.027826678954766523 -0.011210528013807104
7.38 0.18 0.004418398281219492 0.029672845442062286
10.38 7.27 0.02690025099423095 0.013280681324667667
5.65 8.63 0.02999907573676849 -2.3548872505499516E-4
12.42 2.72 -0.022358039720854865 0.020002951278265818
5.86 1.09 -0.021717677338273234 -0.020696436674718984
3.36 2.33 -0.005102278097639363 0.029562928782756785
3.35 14.64 -0.02204642191640703 -0.020345891002454715
3.61 11.45 0.021837978536938783 -0.020569460212173794
11.92 3.04 0.028124817924277658 -0.010440048693671414
3.79 0.68 -0.011590643348674424 -0.027670507526314534
1.01 9.05 0.023715307715805916 0.018373464015928962
0.45 2.35 -0.02923934116984046 0.00671274369789826
9.97 4.6 0.015405574171546532 0.02574234419094303
12.05 5.48 -0.011420462068157475 -0.02774117960991883
2.07 13.6 0.029988330153277672 8.366926664056362E-4
0.07 11.27 0.027864949870003552 0.011115060447077604
14.69 11.39 -0.029196000715131915 -0.0068988073057606545
13.37 14.63 0.022407591705334965 -0.019947426750511043
10.96 13.32 4.739195247675426E-4 -0.029996256437829775
8.07 11.33 -0.014612282999640888 0.026200785971768212
11.74 3.75 0.005491968425765573 -0.029493020916996515
13.64 13.91 0.023134285652000867 -0.019099864590400285
10.78 5.58 -0.01857882782882094 0.023554769294285783
14.88 3.25 -0.02936202705764397 -0.006153971649770851
4.37 9.07 -0.02228582619907262 0.020083374980932073
3.12 1.55 -0.02127213490205652 0.021154107797510837
5.82 7.51 -0.02891524281156477 0.007994293786711357
8.7 6.07 0.021645034440785797 -0.020772397166846118
8.63 1.13 -0.02826247457745039 -0.010061437807737538
5.55 6.86 0.019869881553560675 -0.022476383317773106
1.22 14.18 -0.004038855647946753 0.02972688421370542
2.59 0.48 0.024084290225383474 -0.01788706136679522
4.48 9.09 -0.00565524282839141 0.02946214908237224
10.06 5.21 0.008079225950176457 -0.02889162695394628
2.49 5.21 0.02549317038418894 -0.015814495368576
8.14 12.4 -0.011261985414526342 0.027805892981938127
0.42 8.5 0.029578138836568964 0.005013352467625899
3.48 7.02 -0.011062200885315567 0.027885976970027846
12.15 7.15 -0.02591769411567838 -0.015108710458743001
8.32 14.3 0.02359797917297405 -0.01852391370504308
9.22 6.99 -0.027529630577174044 -0.011921385837406814
5.57 13.29 -0.016544096456265173 0.025025844090575528
1.27 9.26 0.014868924503441034 0.026055999004278664
11.89 11.65 0.018906361137189978 -0.023292692170510314
1.96 1.98 -0.02679610305099927 0.013489583436126842
9.57 9.93 -0.025562561965203498 0.015702083485166274
13.07 10.07 -0.014440674820788991 -0.026295758416905013
1.96 7.2 0.0036593504888770296 0.02977598283851526
13.22 12.98 -0.02982858789864444 0.0032023965983060854
0.58 8.75 -0.009199388196257353 -0.028554706386418348
1.47 7.34 0.027551928265962422 0.01186976195326852
11.19 0.37 -0.0030105146383024146 -0.02984856448160559
14.72 1.06 0.014977552573936967 0.025993709217711776
14.45 7.24 0.021110944423503253 -0.02131497186363981
11.7 13.81 0.029990848157463737 7.409634241673909E-4
1.07 14.45 -0.013093672416107172 -0.026991771758439167
14.9 12.8 0.010176413901196026 -0.028221279207568607
4.39 9.92 0.01563845173125165 0.02560153955232599
5.78 1.31 0.02564348964351426 -0.015569567717280297
2.87 8.92 -0.017455376047372247 0.024398972253863956
2.1 1.4 -0.02493835470855979 -0.01667568482641878
3.03 13.65 0.011496801485730337 0.027709629293761917
0.2 5.71 0.029211499503590147 -0.006832883487353822
2.63 14.56 -0.02472128805430481 0.016995820572602138
8.64 7.35 -0.009888893627108484 -0.02832330811949291
2.34 9.33 0.0286901784992663 0.008767762410115697
13.35 10.21 -0.026523848389354298 0.014017327370741807
12.91 3.72 0.004370151320277437 -0.02967998951209177
3.45 1.24 0.029559976995102523 -0.005119351526219841
8.92 7.65 0.016533556318086305 0.025032808781210877
10.18 4.49 0.022591866460635903 -0.01973847942027943
8.46 13.36 -0.027908939309502712 -0.011004140430696719
10.69 11.06 0.01524107053560422 -0.0258400806679998
12.17 6.29 -0.016184764035092995 0.0252597191815024
1.64 2.14 0.02237052352576147 -0.019988988898474898
3.75 3.26 -0.028448348588427843 0.009523206528858621
11.85 1.72 -0.0029080896231858254 -0.029858717566960555
7.79 11.0 -0.01334205869443006 -0.02686986173753753
6.37 8.98 -0.0209290373197197 0.021493612931980047
9.4 11.97 0.02226369432171813 0.020107906781887962
13.85 9.03 0.005215023405578644 -0.029543248482170454
9.19 13.27 -0.02437059436164387 -0.017494974434397206
2.05 9.75 -0.024333397639319857 -0.01754667373967906
10.39 2.94 0.017779938635014838 0.02416348033986633
5.66 10.87 0.029419122866622238 -0.005874964660198761
9.28 6.89 3.5332812483174355E-4 -0.029997919248444596
9.13 10.52 0.0172754066981219 -0.024526726716267804
3.28 8.43 0.02881443200167486 -0.008350359777929077
5.88 7.88 -0.02610380605755371 -0.014784833759958963
5.11 5.98 0.02462481459343227 0.01713530000435023
14.21 9.61 -0.027633824473849173 -0.011677831346123066
10.15 8.54 0.01038876449488714 0.028143801666970513
13.83 6.32 0.01515940969251059 0.02588807250018077
2.84 11.98 0.004787299176715788 -0.02961556628856886
10.69 9.17 -0.01898691448329967 0.023227076406725517
1.59 3.09 0.009539671809727262 0.028442831465286554
6.65 0.4 -0.014335368779018783 -0.026353314819383414
10.7 12.17 0.004526535698442803 0.02965654185117885
14.16 0.26 -0.023583032860649042 0.018542938307979873
6.31 13.54 0.025179100066606182 -0.016309902508471117
4.89 6.83 0.007267742232148 0.02910635536866566
12.18 2.06 0.028437455941469375 0.009555684150126984
0.08 3.63 -0.019404219615815666 -0.022879603604546876
9.95 7.79 0.009751802502703275 -0.02837080097473933
4.06 8.88 0.028649898421140498 -0.00889850102311233
2.19 9.3 0.018238748898601657 0.023819068802406126
11.13 8.99 -0.029924213177808336 -0.0021310714884962773
10.38 10.11 -0.01575653684863607 0.025529033403902578
4.75 12.55 -0.02083344611828179 -0.021586280894045864
3.55 6.55 -0.027151412998928127 -0.012759340584906288
6.88 14.95 -0.024619159054105822 0.01714342461320489
12.27 13.77 -0.02331953276126105 0.01887324539649905
13.69 12.31 0.011500075252645243 0.027708270772162893
11.35 5.81 -0.01221860382306115 -0.027399009482371353
3.17 12.44 -0.027075858500956212 -0.012918896486782343
13.18 3.95 0.007939452308198034 0.028930349065399277
8.3 8.98 0.027144054811695583 0.012774986825029049
7.73 11.71 0.029454045383869695 0.005697298528683945
13.72 8.91 0.025949507190731122 -0.015054005332740976
3.76 8.3 -0.016843578539641895 0.024825266604387452
7.26 12.16 -0.023211339303393117 -0.01900614973482946
9.43 6.27 -0.02976125505130693 0.0037772606173068924
11.52 10.88 0.01874876995566936 0.023419727264624365
4.67 2.76 0.0199361917609539 0.022417588141244674
14.59 4.75 0.027478768119676117 0.012038160267460778
5.83 2.61 0.022181076642924735 0.020199005890407053
7.46 2.3 0.007145950942193132 -0.029136495759301065
12.52 10.09 0.02001482754775256 0.022347408758818667
9.71 12.09 0.007363030294772996 -0.029082396477564484
4.75 10.17 -0.02356633618634605 0.01856415359643732
13.68 1.31 -0.018839756102339636 -0.023346596968388273
12.51 8.56 0.02523119393679856 0.016229197531722247
5.97 13.12 0.029937192472525034 0.0019402337134969837
13.73 8.83 0.0296352865612826 0.004663667058298955
4.2 7.77 0.02930123580121639 0.006437202849181846
5.1 3.46 0.025232104080418073 -0.016227782463261873
5.22 1.26 0.0014566433140696387 -0.029964615636706843
9.09 14.56 0.017985994857977965 0.024010497474412938
0.27 14.22 -0.029932265012068256 -0.0020148228823681654
9.39 13.69 0.022399054253735017 0.019957013016436983
5.82 7.21 -0.02528289662916919 0.016148533618838123
5.41 3.96 0.003926540779383244 0.029741927938649847
2.98 12.56 -0.02192357799876077 0.02047820128166174
5.6 11.23 -0.015671799597693978 0.025581139485365362
11.76 1.49 -0.020438440779335314 0.0219606497743032
7.85 5.36 0.004022575574664491 0.029729091572836742
5.62 4.19 -0.01802981822952315 -0.023977607357915313
4.09 0.63 -0.004814150225402611 0.02961121337613938
5.1 14.0 -0.020914867343846986 0.021507401609429322
4.89 3.79 -0.02986641787303684 -0.002827911496696036
3.28 5.91 0.01241344729095191 -0.027311285695747804
8.66 6.4 -0.011252005526294757 -0.02780993296712943
9.59 13.14 0.026587021435413475 -0.013897132480942403
8.89 12.47 0.029175092022355024 0.006986702046539283
7.17 14.2 0.02552256040010552 0.015767019712772782
1.3 5.49 0.021524085278198348 -0.020897697311829482
12.65 2.1 -0.018553737620091913 0.02357453754211917
2.03 3.28 9.989526783923487E-5 0.029999833681796692
11.23 10.3 -0.025333647759066442 0.016068798686259895
1.17 7.53 0.01401545561595064 0.026524837490120794
8.4 9.68 0.02942617523014314 0.0058395386226062496
5.18 3.62 -0.007120323690765984 0.029142769095244134
8.49 13.68 0.027680810982958742 -0.011566015014935377
10.18 5.3 0.027140831038048742 -0.012781834397459937
4.2 13.23 0.01677272301695539 0.024873193654946987
7.03 7.31 0.024913408639168886 -0.016712931220398925
4.6 11.32 -0.017220939952857298 0.0245650000435596
2.67 12.89 -0.029619894505337314 -0.00476044635435463
13.18 11.14 -0.00295158046280781 -0.029854449798506943
1.2 6.93 -0.016487660035832907 -0.025063061795056053
6.2 10.32 -0.02868572422913598 -0.008782324603996429
11.71 4.08 0.01860636329489625 -0.023533024559931465
10.21 12.48 0.01760019680030902 0.02429471285260215
3.67 5.1 0.015922708185432462 -0.025425722488093865
6.49 11.38 -5.849987190370006E-4 0.029994295732667653
4.57 13.41 0.017190277806956377 -0.024586466783978193
8.94 11.18 0.020902123658358356 -0.021519786861646562
13.06 12.28 -0.01212462192149866 -0.027440727819442293
5.53 0.62 0.02861786180843184 -0.009000999139734334
4.73 2.54 -0.02885425826931247 0.008211685559482472
12.33 12.31 0.008436288881013054 -0.028789390926452326
11.33 8.47 -0.01082530605595617 0.02797879105313306
12.85 12.18 -0.001997303725368857 -0.02993343912464165
3.08 9.26 -0.011283348867230862 -0.02779723076747682
9.11 12.98 -0.008771581042924562 -0.028689011241369165
12.34 11.41 0.026044045748869114 -0.014889851612115297
9.71 14.25 -0.028940068849579215 -0.007903949328127973
10.75 1.7 0.022513968019746665 0.019827285341312468
8.79 5.28 -0.01994372239029894 0.022410888809208097
0.75 3.76 9.384830270161785E-4 -0.029985317233739626
13.69 0.86 0.007017775103926591 0.02916763330458452
5.95 0.33 -0.022898127359498845 0.01938235701425836
2.67 8.86 0.0029775662292480616 -0.029851869277324014
8.8 11.72 -0.012589982600641939 0.027230356922294155
13.0 12.06 0.02999194384749933 6.95200869135653E-4
7.57 10.11 -0.003783902090961842 0.029760411370913786
8.33 5.56 0.028450001904692126 -0.009518266208875135
8.52 12.61 -0.013096616561655977 0.0269903433590045
3.03 14.92 0.027009385271612743 -0.01305730091747864
12.84 10.36 -0.016301194196439623 -0.025184738787010736
10.1 8.66 0.029979037433351695 0.0011213003922667902
1.7 8.93 0.025294151568179397 -0.016130898810852657
12.64 12.9 -0.029945198172482354 0.0018124862511917806
1.56 9.89 0.021907978504317357 0.020494889066651922
13.07 4.2 -0.011566202860602372 -0.027680732493693034
0.36 6.38 -0.020203844939771877 -0.02217666903864632
7.68 0.97 -0.009065869306242867 0.028597377742060958
14.56 9.81 -0.026630968650542295 0.01381272995225178
8.03 11.88 0.019362091904710336 0.02291526559029047
9.97 8.35 -0.014408050550089459 -0.026313648157297892
9.35 14.21 0.02790871028707145 0.01100472126463511
13.71 1.54 -0.025785050150941125 -0.015333988023780736
5.0 3.1 -0.0042863970818140295 0.029692200997181332
8.11 4.37 0.01147866961974854 -0.02771714530323536
14.66 7.1 -0.028351151953990402 0.00980878090701114
11.03 7.58 0.02496205781038144 -0.01664018238695643
7.65 13.52 -0.0032767048434949857 0.02982051651746858
1.04 5.02 -0.010932612676334061 -0.027937035992911984
11.76 6.3 -0.017935347308586935 0.02404835372578263
9.51 7.44 -0.02964680814612562 -0.004589854763150982
11.31 7.76 -0.011042254722055134 -0.02789388124039484
0.5 10.82 0.0029529012947131714 -0.029854319184059133
7.45 4.12 0.029905930059862012 0.0023738886356865305
2.94 11.35 0.029230793936841047 -0.006749865615102018
1.88 13.71 9.369275728039217E-4 -0.02998536587609562
3.54 12.55 -0.02721924239004217 -0.012613993963536345
14.45 5.44 -0.02974890810462046 -0.003873301767594016
12.46 4.12 0.010775101852967145 0.027998163869407292
8.37 8.81 0.007868840930835844 0.028949634581548738
12.62 0.59 -0.009720202654968537 -0.028381643017033782
5.96 10.45 0.0077919699374087315 0.028970419473913708
2.19 6.78 -0.013463637868755509 -0.026809148724624074
6.28 1.11 -0.015812641004882427 0.025494320631283957
13.63 5.69 0.027766691533995816 0.011358293941253901
9.87 0.65 -0.025665828236917463 0.015532715825413471
11.44 8.34 0.028567113473678938 -0.00916078750883084
9.59 12.23 -0.02139357630146715 -0.021031283675356168
9.25 13.67 0.023080150769176803 -0.01916524564079645
5.29 10.83 0.021290376623294048 0.02113574846647959
1.12 0.4 0.01255377508325333 0.02724706830393112
13.7 0.02 -0.029998920083638293 2.545462933984827E-4
10.17 1.69 0.029816238120895466 -0.0033154101281832396
3.85 9.26 0.029995042073134467 5.45390713977745E-4
6.73 1.83 0.002467274468076802 0.029898370468959948
6.89 13.33 0.0012750388554194382 -0.029972892351542765
6.78 13.35 -0.004699442408078552 -0.029629634507586364
8.14 13.78 -0.006714466946802911 0.029238945494328126
5.43 6.27 0.002751295361779561 -0.029873573168140603
12.72 1.25 0.026397589411231402 0.01425367578121671
3.57 10.38 -0.01779647880490371 0.024151301044594117
5.02 1.23 0.027365799909993015 0.01229280258062522
14.86 9.81 0.003522963355156627 -0.02979242738009482
6.02 4.56 0.010874205740685268 0.02795982205789671
4.03 3.22 0.029106368580102935 -0.007267689321868167
1.09 7.73 -0.02890537025580144 0.008029917208479148
10.89 6.38 0.010438565137861955 0.02812536858180907
9.79 1.73 0.017357709846437308 0.024468549382562366
13.41 3.05 0.008243932648190296 -0.02884506152692523
2.91 7.22 0.021805628959721282 0.020603750767056096
2.18 3.33 0.029946190503096513 0.0017960162449855977
5.62 1.97 -0.0033758218808217014 0.029809458677221318
6.75 12.87 -0.0010130555037411403 0.02998289043014932
9.55 10.99 -0.009865339405256924 -0.02833152093374242
13.74 4.79 -0.01016822338122339 0.028224231314059586
10.16 2.93 0.019286817755046398 0.022978656637924394
4.89 4.97 0.010329414710784935 0.02816563849325308
9.76 5.39 -0.024938437824250155 -0.016675560526891117
2.17 0.21 0.021828066498838804 -0.020579978448051667
9.97 0.45 -0.014528209319118052 0.026247497670823617
10.82 12.39 0.027846884345492606 -0.011160243377666945
6.49 5.47 -0.015171471694416587 -0.025881005518053512
9.96 10.58 0.01660721223622649 -0.024984004917965597
2.52 12.93 0.013185562586350789 0.026947002417364092
8.89 11.82 -0.025601700289740383 -0.015638188586735588
1.13 6.96 -0.002941400143257175 0.029855454530072836
11.5 4.92 -0.0059077698858832385 -0.02941255267696857
0.53 7.75 0.006461094102318783 0.02929597690811797
4.35 10.53 0.028923025142410613 0.00796609167732104
4.93 9.04 0.012676994653562637 0.02718995782551978
13.14 9.45 -0.028755677521917572 -0.008550497661275884
7.44 7.33 -0.0018756857794764179 -0.029941305964447672
5.88 14.71 -0.011964145908455499 0.027511074364357117
10.28 10.52 0.028070345619265857 -0.010585636344356535
9.88 12.02 -0.029990128769767664 7.695299687170542E-4
1.26 7.22 0.029995531422640564 -5.177785949442915E-4
3.35 6.74 -0.027273516562383502 -0.012496211198655084
4.15 1.78 0.029748967718804295 0.0038728438731169992
1.22 14.18 -0.029786414087101348 0.003573448730810394
9.52 13.85 -0.029999295265907597 -2.0562964011523594E-4
8.56 14.05 -0.02657793723715069 0.013914497914695975
1.27 5.11 -0.02313626954545272 0.01909746138941396
13.6 13.52 -0.004668549854010368 0.029634517749756274
12.63 14.31 0.029780086331693913 -0.003625804473059376
1.29 6.82 0.029846853591982577 0.0030274297116129256
14.65 5.88 0.0298229435234539 -0.0032545413804220017
1.93 13.72 -0.02000104137744467 -0.022359748295044515
13.3 5.74 -0.02888154437825893 0.008115195273476788
13.23 7.18 -0.010952255007180084 0.0279293413860352
0.74 7.02 -0.029896153703869315 -0.002493991522563963
12.84 9.83 0.026533025268741524 -0.013999948931632707
9.42 1.83 0.02818790797603847 -0.010268487908859153
12.32 12.43 0.01646820256768858 0.025075851016258154
11.92 4.35 0.011502374029866315 0.027707316573011124
1.96 1.19 -0.0010561553427173125 -0.029981403167497842
12.93 8.86 -0.007588094910102897 0.029024486483575734
14.92 9.65 -0.02121570412644698 -0.02121070244992043
8.62 10.32 0.006887438867110783 -0.029198684659618005
2.81 9.63 0.026860705478905008 0.013360482819700877
2.25 8.91 -0.020020118228388832 -0.02234266918077008
13.34 14.3 0.027868349437953622 0.011106534095032077
13.87 13.45 -0.019929399231488 -0.022423626965144723
9.92 5.41 -0.0235544406204012 0.018579244523392068
10.58 2.58 0.029989952873455333 -7.76354717850114E-4
11.29 5.33 -0.02653666622570413 0.013993046331145115
2.4 1.25 0.027671491590410758 -0.011588293798563562
3.46 3.3 -0.015993597031583207 0.025381190949034144
12.87 13.82 -0.029989994587641088 -7.747416558170526E-4
9.66 4.18 -0.019528359784332348 0.022773738475131193
12.1 8.87 0.029959432319888835 0.0015596201685026737
3.04 6.43 -0.01623859050493539 0.025225149720329156
8.6 4.4 -0.002030630261625115 -0.029931196780960366
10.22 5.29 -0.028075363846594995 -0.010572319749293756
5.24 6.18 0.02061704947476498 -0.021793055567200598
8.14 0.3 0.004434856798796529 -0.02967039004081625
8.21 5.39 -0.00668905030058175 -0.029244770576571245
14.61 5.58 0.008909772183983328 -0.028646395229234636
11.83 5.65 -0.0029583755516114254 -0.029853777216553818
12.61 4.6 0.023031640038406086 0.019223515733114215
5.44 8.32 0.02979757359262035 -0.0034791677154708124
11.26 5.35 -0.01510519204399589 0.025919744854338424
7.85 8.53 0.018745315686338707 -0.023422492177808577
10.88 10.13 -0.02620567223398131 -0.014603518163961066
3.17 13.32 -0.0203998599576701 0.021996493213861344
2.71 3.22 0.029408051303187972 -0.0059301364696829765
0.65 6.93 -0.006311136478066595 0.029328647366614388
3.17 3.51 0.014290082047550124 -0.02637789898900755
10.3 1.97 0.016893796004580453 -0.024791120518355386
5.7 7.45 -0.02516488040664461 0.01633183376474529
14.1 4.22 0.029038243028835387 -0.007535279808891834
7.46 12.11 0.02622753294801597 0.014564220386300694
2.11 7.14 0.029899921049243567 0.0024484119851449515
1.73 11.28 -0.02053794966627954 0.021867615862397254
11.0 1.29 -0.003783105606230927 -0.029760512629524782
10.46 11.64 -0.011258147914976884 0.027807446943660642
1.56 2.48 -0.003265184095265704 -0.029821780175301807
10.46 14.73 0.0275961412035655 -0.011766604891508622
0.29 1.09 -0.00695245660932307 -0.02918327169964807
0.26 3.99 0.026133027966634772 -0.014733120826732019
4.2 8.98 -0.02099649777215508 0.021427717594365635
8.44 10.32 -0.014885449183375588 -0.02604656220327633
6.39 9.04 -0.028322139274544793 -0.00989224074278863
13.1 2.78 -0.02408823292127135 0.01788175144471534
8.95 6.11 0.010309802134261027 0.028172823428836282
0.76 0.35 0.029497994489964725 -0.005465191768822991
13.37 6.86 0.028111856121333732 0.010474900735254297
6.76 9.12 -0.029562858528662906 -0.005102685137676322
12.45 0.06 -0.01811448168798163 0.023913710568955585
13.08 8.03 0.0061195793458846594 0.029369214300512397
11.36 12.08 -0.009535619766708147 -0.028444190191755588
3.06 0.13 -0.028849224205071397 -0.008229353727087106
4.42 1.6 0.028740170158380124 0.008602477507518198
11.47 0.14 0.02233806485961742 0.020025255512165763
2.68 6.03 -0.02984604843220639 -0.003035357142477731
11.95 12.57 0.016196293927631923 -0.02525232787308436
1.45 10.95 -0.004586816589014658 0.02964727835027593
12.68 13.68 0.016661312855895748 -0.024947958912864256
5.23 7.61 0.021586608300309822 -0.020833106875571748
14.83 14.29 -0.017290964460361918 -0.0245157612166235
6.84 2.34 -0.0019092662531242817 -0.029939183395254466
2.25 13.9 -0.026573858221929335 0.013922286421446679
0.63 0.39 -0.02041445904467894 -0.021982944796207948
14.33 5.85 -7.931810881444719E-4 0.02998951256291789
8.95 5.55 -0.02072209865066519 0.021693193114709963
13.01 1.38 0.019394131470638277 -0.022888155550406374
14.57 5.58 0.020705079577692995 0.021709437571742856
8.38 14.84 0.015691861449693256 0.02556883814809798
10.43 7.18 0.02972061048737303 -0.0040847658755248355
11.42 0.5 -0.029070103980150808 -0.007411413804613802
6.99 8.32 -0.01953251662534048 -0.02277017334762293
0.75 5.47 0.015519107523144683 -0.025674058925013666
6.14 8.86 -0.029337366416496397 -0.006270480981888817
4.35 11.97 -0.018072624979623232 0.023945359181810122
14.4 14.85 -0.022010711904023268 -0.02038451769059274
10.84 10.79 -0.02289515046070031 0.01938587334586436
6.86 10.14 -0.02577256657090392 -0.015354960512756964
13.63 11.72 0.022998985246502443 0.019262571937079503
12.04 7.92 -0.024029788206150614 0.0179602137728799
14.99 0.23 0.007901272136740689 -0.02894079989601471
11.68 13.46 -0.009083041359144952 0.028591928225778374
1.04 3.82 -0.011376012621423242 -0.027759436896976478
13.21 3.16 -0.008978103316131763 -0.028625053027808763
6.97 14.73 0.02388179909169666 0.018156532492296998
11.23 13.69 -0.021280150524475603 -0.021146044397372776
6.18 14.85 -0.026991773923172726 0.013093667953645867
8.4 3.74 -0.025984518595493566 -0.014993491700082708
5.07 7.21 0.01376269322509501 0.026656861690602735
14.52 9.77 0.024554549267450397 0.017235837962581078
9.66 7.24 -0.009885985224346689 0.028324323401345334
6.65 10.8 0.005271074922827417 0.029533299327334558
13.33 10.69 -0.021791631120633287 0.020618555068244882
1.69 0.94 0.002836687017700744 -0.029865585659143
9.21 4.04 -0.014121034823802258 0.02646878114883577
6.63 7.38 0.02405421343979536 0.01792748771559384
4.33 11.61 0.016630328402635865 -0.024968623855160355
5.37 5.06 -0.0012395118620461578 -0.0299743825681839
1.12 12.73 -0.00488736753177024 -0.029599216858042003
10.01 13.03 0.02699872954143464 0.01307931967452682
6.21 0.88 -0.014219830159726317 -0.026415836731561955
12.87 1.5 0.024519658478743833 -0.017285437457170868
9.56 10.39 -0.016461165979547693 0.02508047078094392
9.56 6.84 0.0058030436378441195 -0.029433394036999485
1.21 0.2 -0.012131432894351372 -0.027437717396493633
12.06 1.16 0.012850218309111252 0.02710852060530382
6.34 12.93 0.01577392747961826 -0.02551829171139291
4.47 11.29 0.029991967854368393 -6.941644059823619E-4
3.38 11.01 0.016706386122027062 0.024917798111826445
8.04 11.06 0.029646614086756964 0.004591108056983999
13.39 10.75 0.02452405099010769 0.017279204930626815
5.45 14.48 -0.008742948789477824 0.028697749850198503
7.88 13.69 0.027795457602122684 0.011287716185686112
3.53 6.01 -0.029450626230955963 0.005714946596822092
5.81 3.35 -0.026495095253358896 0.014071600033949187
7.05 8.12 -0.017797714665065856 -0.024150390321916116
14.47 9.5 -0.012389683828375415 0.027322074127578467
10.03 4.86 -0.014693841913908039 0.026155133526883003
12.58 5.4 0.029228884338996276 -0.006758129940862204
9.77 13.94 -0.018671793998480093 0.023481143687612893
12.52 7.68 -0.02913611202397485 -0.007147515381332749
7.65 3.87 0.028996122861464 0.007695768902642849
2.83 1.83 0.025838016472898663 -0.015244569680585192
9.34 0.88 0.0239635467859486 -0.018048502027527173
10.23 10.35 0.006768498482493617 -0.029226485048539134
10.86 14.69 -0.023955637824370303 -0.01805899821218217
14.84 9.31 0.028767882055791852 -0.008509345569669218
5.84 0.64 0.020805258006270182 0.02161345042543024
10.4 2.51 0.015012239059724621 -0.025973692044329748
7.74 4.35 0.012696950507111551 0.027180644727819826
10.51 11.75 -0.0280360871423357 0.010676039422340048
9.98 9.12 -0.021717687636000675 0.020696425868857244
0.4 14.84 -0.02653944696238729 0.013987771621335262
5.22 14.89 0.01205363752584244 -0.027471982498458367
2.63 2.26 0.021196446716037272 -0.021229946929142162
9.19 11.1 0.026226611268045714 -0.014565880041893022
8.69 11.72 0.02928449308965745 0.006512945914239195
7.86 5.11 0.00434619835038611 -0.029683506529706038
12.54 4.02 0.02537188832409027 0.01600835041064168
5.9 0.85 -0.010450004600726358 0.028121120245196453
10.48 1.89 -0.016438239889478075 -0.025095502970372437
12.57 6.86 0.029887934132048075 0.0025906356977304984
0.74 2.71 -0.004903675630030568 -0.029596519479753766
0.62 6.02 0.022902337804367602 0.019377381739921273
5.03 4.4 0.02777949168299477 0.011326952009893235
11.86 3.43 -0.00915277311189807 0.028569682258683164
2.7 7.79 -0.027118556271885027 0.012829025907238832
2.25 2.41 -0.029636221151304792 -0.004657724323202735
2.1 12.23 0.026570501171726883 0.0139286922388019
13.07 2.53 -0.02665491453938688 0.013766463993995762
12.72 10.36 -0.016201489481024352 0.025248994803679953
13.1 12.06 -0.01593511748917604 0.025417947017927232
14.89 6.17 -0.02131390948055691 0.02111201702004397
6.13 11.38 0.0266420475197204 0.013791348880981874
13.07 9.89 -0.008253152419482877 0.028842424917832135
11.2 2.18 0.011807262707274793 -0.027578769866718093
7.28 11.33 -0.0016479890096110597 0.029954701337589748
7.26 11.4 0.013897738534636177 -0.026586704640155927
5.99 12.5 -0.010367630176467942 0.028151593996148624
12.33 12.44 0.026157604659750068 -0.014689442415021115
12.56 8.97 0.0281652257007555 -0.010330540219441662
6.2 14.91 5.3244272212558254E-5 -0.029999952750754066
11.11 8.1 0.009268535521386064 -0.028532336905497325
9.33 8.04 -0.02846286212533006 0.009479740483496972
11.34 11.0 0.01933586858308924 -0.02293739710903359
4.45 1.5 0.014187218995016626 0.02643336560461871
5.71 9.11 0.025250929489383588 0.016198473999799436
6.1 6.21 -0.029421034359617588 -0.005865384660037337
11.05 4.62 -0.028534068243184968 0.009263204061946558
1.98 11.49 0.028935169805867522 0.007921865203701231
10.37 8.06 -0.021647130426814987 -0.020770212908982434
3.92 3.5 0.02999997990770935 -3.4720844389499056E-5
4.59 14.85 0.02903538198879628 -0.007546296625808222
14.92 13.93 -0.02840254813001329 0.009658947133216874
12.44 11.7 -0.028819864781709358 0.008331590122178874
7.42 11.36 0.017114969846389556 0.024638948986455897
10.6 7.07 0.001117569739104785 -0.029979176737833166
11.81 6.71 -0.0019492054557930928 -0.029936609662603853
4.99 9.04 -0.029811449474841947 -0.0033581959753632065
12.89 12.69 -0.02344970134692102 0.018711266839533086
7.81 12.43 -0.020427737428682285 -0.02197060635359918
0.77 11.29 0.009452670049091436 -0.02847186381224471
13.51 0.9 0.02436231561570554 0.01750650101650098
1.31 11.59 0.0026126995421131955 0.029886013469558655
11.04 3.42 -0.022567442494749002 -0.019766399248375942
5.25 14.47 0.02776387384255714 -0.011365179684218433
13.02 8.38 0.02377837126423087 0.018291775748144293
3.57 4.04 0.006950382271787805 0.029183765800115957
11.38 7.13 0.008078045838110611 -0.0288919569333298
10.66 14.79 0.02447003127167868 -0.0173556206908041
13.12 7.81 -0.02782840974256671 -0.011206230909624255
5.49 11.89 0.01955225338281359 0.022753228071072787
12.85 13.75 -0.020405131344152068 -0.021991603280068116
9.63 1.0 -0.029176500011068873 -0.006980819944970506
3.32 9.69 0.021765066853787776 -0.020646594509752658
0.1 7.68 -0.0018583427972341641 0.0299423873805675
8.31 2.81 -0.007946876997329285 0.028928310458602984
3.16 5.12 -0.027606976838331403 -0.011741159646637698
6.28 4.07 -0.020085158115042443 0.022284219158268583
14.62 7.84 0.009317709617934218 -0.028516316162433327
6.94 4.58 -0.029630024406222092 0.004696983466724475
10.33 12.6 0.029820433256442173 -0.0032774624937712796
6.42 4.87 -0.029993795820450676 6.100920267595643E-4
14.73 11.66 -0.018383903018832748 0.023707216407544605
0.84 9.25 0.0022489153692721218 0.029915587570058716
3.95 7.07 -0.02279455772024299 -0.019504054407699714
1.41 5.74 -0.027166846991705147 0.012726445871856016
8.51 3.69 -0.011489549648900275 -0.027712636988663775
13.28 1.23 -0.01647340899640645 0.025072430995759367
4.78 7.15 -0.0015394927494012463 0.029960473328613166
3.98 4.79 -0.007882336179056634 0.028945963040816845
12.75 11.88 -0.023767435108730885 0.01830598340303701
10.98 6.28 -0.02532877433188174 -0.016076479429421378
11.7 12.91 0.029996922028947662 4.297310661733684E-4
1.7 0.86 -0.008916407947923505 -0.028644330491498775
