t0
2.3 5.4 1.1 1.5
5.3 2.4 1.8 0.5
0.7 16.77 0.0 0.0
15.5 14.71 0.0 0.0
3.37 13.68 0.0 0.0
2.26 10.5 0.0 0.0
4.71 16.36 0.0 0.0
9.24 11.32 0.0 0.0
0.14 0.99 0.0 0.0
5.6 3.6 0.0 0.0
11.14 5.06 0.0 0.0
7.45 14.4 0.0 0.0
11.69 15.03 0.0 0.0
15.93 5.77 0.0 0.0
7.64 2.74 0.0 0.0
3.89 6.34 0.0 0.0
16.97 4.77 0.0 0.0
15.62 15.26 0.0 0.0
0.88 13.48 0.0 0.0
2.34 4.12 0.0 0.0
9.68 3.83 0.0 0.0
8.21 3.77 0.0 0.0
13.84 6.95 0.0 0.0
5.6 0.71 0.0 0.0
15.03 0.74 0.0 0.0
2.88 15.8 0.0 0.0
10.35 12.76 0.0 0.0
13.61 1.11 0.0 0.0
6.43 10.93 0.0 0.0
10.99 9.78 0.0 0.0
16.42 4.82 0.0 0.0
3.7 0.86 0.0 0.0
10.8 12.49 0.0 0.0
12.82 5.19 0.0 0.0
14.85 5.02 0.0 0.0
6.17 14.69 0.0 0.0
15.07 7.43 0.0 0.0
9.83 16.34 0.0 0.0
10.22 6.79 0.0 0.0
1.59 11.78 0.0 0.0
5.05 14.8 0.0 0.0
10.04 5.3 0.0 0.0
2.21 3.45 0.0 0.0
16.77 9.5 0.0 0.0
13.0 10.93 0.0 0.0
2.44 6.26 0.0 0.0
0.91 2.26 0.0 0.0
1.07 3.84 0.0 0.0
3.18 5.71 0.0 0.0
14.38 16.41 0.0 0.0
0.53 11.6 0.0 0.0
4.54 13.86 0.0 0.0
7.48 6.54 0.0 0.0
10.49 0.83 0.0 0.0
2.58 9.85 0.0 0.0
10.2 11.81 0.0 0.0
9.01 16.53 0.0 0.0
13.64 10.66 0.0 0.0
1.23 7.73 0.0 0.0
10.85 13.98 0.0 0.0
2.21 8.73 0.0 0.0
15.1 3.89 0.0 0.0
9.82 8.05 0.0 0.0
8.59 14.29 0.0 0.0
8.66 6.77 0.0 0.0
6.34 3.2 0.0 0.0
6.93 14.71 0.0 0.0
9.08 0.73 0.0 0.0
12.38 12.78 0.0 0.0
14.84 12.47 0.0 0.0
8.8 10.98 0.0 0.0
1.89 8.24 0.0 0.0
13.78 3.16 0.0 0.0
2.93 7.13 0.0 0.0
15.58 12.52 0.0 0.0
11.6 4.82 0.0 0.0
3.57 16.92 0.0 0.0
10.13 13.45 0.0 0.0
15.63 2.01 0.0 0.0
10.07 0.17 0.0 0.0
4.69 11.03 0.0 0.0
7.4 14.91 0.0 0.0
0.98 12.73 0.0 0.0
4.22 5.9 0.0 0.0
13.79 5.62 0.0 0.0
9.47 2.21 0.0 0.0
14.11 14.15 0.0 0.0
12.27 10.22 0.0 0.0
16.98 16.23 0.0 0.0
11.83 11.28 0.0 0.0
7.2 4.3 0.0 0.0
14.92 16.09 0.0 0.0
6.25 9.17 0.0 0.0
6.54 6.2 0.0 0.0
16.17 14.26 0.0 0.0
9.81 0.74 0.0 0.0
6.09 13.97 0.0 0.0
7.05 7.96 0.0 0.0
11.55 5.6 0.0 0.0
7.89 15.61 0.0 0.0
